{
  "generated_at": "2026-03-12T01:14:07.732Z",
  "data_source": "Real PSGC Q4 2025 parsed data (scripts/data/output/*.json)",
  "api_version": "1.2.0",
  "total_cases": 10,
  "cases": [
    {
      "case_number": 1,
      "tool": "lookup",
      "description": "City of Manila - Highly Urbanized City in NCR",
      "args": {
        "code": "1380600000"
      },
      "response": {
        "_meta": {
          "dataset_version": "PSGC Q4 2025",
          "dataset_date": "2025-12-31",
          "last_synced": "2026-03-02",
          "source": "Philippine Statistics Authority (PSA)",
          "source_url": "https://psa.gov.ph/classification/psgc/"
        },
        "data": {
          "psgc_code": "1380600000",
          "name": "City of Manila",
          "level": "City",
          "old_name": null,
          "city_class": "HUC",
          "income_class": "1st",
          "urban_rural": null,
          "population": 1902590,
          "parent_code": "1300000000",
          "child_counts": null
        }
      }
    },
    {
      "case_number": 2,
      "tool": "lookup",
      "description": "Quezon City - most populous city in the Philippines",
      "args": {
        "code": "1381300000"
      },
      "response": {
        "_meta": {
          "dataset_version": "PSGC Q4 2025",
          "dataset_date": "2025-12-31",
          "last_synced": "2026-03-02",
          "source": "Philippine Statistics Authority (PSA)",
          "source_url": "https://psa.gov.ph/classification/psgc/"
        },
        "data": {
          "psgc_code": "1381300000",
          "name": "Quezon City",
          "level": "City",
          "old_name": null,
          "city_class": "HUC",
          "income_class": "1st",
          "urban_rural": null,
          "population": 3084270,
          "parent_code": "1381000000",
          "child_counts": null
        }
      }
    },
    {
      "case_number": 3,
      "tool": "search",
      "description": "Search for Cebu filtered to Province level",
      "args": {
        "query": "Cebu",
        "level": "Prov"
      },
      "response": {
        "_meta": {
          "dataset_version": "PSGC Q4 2025",
          "dataset_date": "2025-12-31",
          "last_synced": "2026-03-02",
          "source": "Philippine Statistics Authority (PSA)",
          "source_url": "https://psa.gov.ph/classification/psgc/"
        },
        "data": [
          {
            "psgc_code": "0702200000",
            "name": "Cebu",
            "level": "Prov"
          }
        ]
      }
    },
    {
      "case_number": 4,
      "tool": "search",
      "description": "Search for Davao filtered to City level",
      "args": {
        "query": "Davao",
        "level": "City"
      },
      "response": {
        "_meta": {
          "dataset_version": "PSGC Q4 2025",
          "dataset_date": "2025-12-31",
          "last_synced": "2026-03-02",
          "source": "Philippine Statistics Authority (PSA)",
          "source_url": "https://psa.gov.ph/classification/psgc/"
        },
        "data": [
          {
            "psgc_code": "1130700000",
            "name": "City of Davao",
            "level": "City"
          }
        ]
      }
    },
    {
      "case_number": 5,
      "tool": "search",
      "description": "Broad search for Manila - matches city, district, sub-municipalities, barangays",
      "args": {
        "query": "Manila",
        "limit": 5
      },
      "response": {
        "_meta": {
          "dataset_version": "PSGC Q4 2025",
          "dataset_date": "2025-12-31",
          "last_synced": "2026-03-02",
          "source": "Philippine Statistics Authority (PSA)",
          "source_url": "https://psa.gov.ph/classification/psgc/"
        },
        "data": [
          {
            "psgc_code": "0500515024",
            "name": "Manila",
            "level": "Bgy"
          },
          {
            "psgc_code": "1630400065",
            "name": "Manila de Bugabus",
            "level": "Bgy"
          },
          {
            "psgc_code": "1903630026",
            "name": "Manila Group",
            "level": "Bgy"
          },
          {
            "psgc_code": "0907330013",
            "name": "Manilan",
            "level": "Bgy"
          },
          {
            "psgc_code": "0806002011",
            "name": "Canmanila",
            "level": "Bgy"
          }
        ]
      }
    },
    {
      "case_number": 6,
      "tool": "get_hierarchy",
      "description": "Full admin chain from Bangkal (Makati barangay) up to NCR region",
      "args": {
        "code": "1380300001"
      },
      "response": {
        "_meta": {
          "dataset_version": "PSGC Q4 2025",
          "dataset_date": "2025-12-31",
          "last_synced": "2026-03-02",
          "source": "Philippine Statistics Authority (PSA)",
          "source_url": "https://psa.gov.ph/classification/psgc/"
        },
        "data": [
          {
            "psgc_code": "1380300001",
            "name": "Bangkal",
            "level": "Bgy",
            "old_name": null,
            "city_class": null,
            "income_class": null,
            "urban_rural": "U",
            "population": 18013,
            "parent_code": "1380300000",
            "child_counts": null
          },
          {
            "psgc_code": "1380300000",
            "name": "City of Makati",
            "level": "City",
            "old_name": null,
            "city_class": "HUC",
            "income_class": "1st",
            "urban_rural": null,
            "population": 309770,
            "parent_code": "1300000000",
            "child_counts": null
          },
          {
            "psgc_code": "1300000000",
            "name": "National Capital Region (NCR)",
            "level": "Reg",
            "old_name": null,
            "city_class": null,
            "income_class": null,
            "urban_rural": null,
            "population": 14001751,
            "parent_code": null,
            "child_counts": null
          }
        ]
      }
    },
    {
      "case_number": 7,
      "tool": "list_children",
      "description": "All provinces under Region III (Central Luzon)",
      "args": {
        "code": "0300000000",
        "level": "Prov"
      },
      "response": {
        "_meta": {
          "dataset_version": "PSGC Q4 2025",
          "dataset_date": "2025-12-31",
          "last_synced": "2026-03-02",
          "source": "Philippine Statistics Authority (PSA)",
          "source_url": "https://psa.gov.ph/classification/psgc/"
        },
        "data": [],
        "pagination": {
          "total_count": 0,
          "offset": 0,
          "limit": 50,
          "has_more": false
        }
      }
    },
    {
      "case_number": 8,
      "tool": "list_children",
      "description": "All cities and municipalities in Bulacan",
      "args": {
        "code": "0301400000"
      },
      "response": {
        "_meta": {
          "dataset_version": "PSGC Q4 2025",
          "dataset_date": "2025-12-31",
          "last_synced": "2026-03-02",
          "source": "Philippine Statistics Authority (PSA)",
          "source_url": "https://psa.gov.ph/classification/psgc/"
        },
        "data": [
          {
            "old_name": null,
            "city_class": null,
            "income_class": null,
            "urban_rural": null,
            "population": null,
            "parent_code": null,
            "child_counts": null
          },
          {
            "old_name": null,
            "city_class": null,
            "income_class": null,
            "urban_rural": null,
            "population": null,
            "parent_code": null,
            "child_counts": null
          },
          {
            "old_name": null,
            "city_class": null,
            "income_class": null,
            "urban_rural": null,
            "population": null,
            "parent_code": null,
            "child_counts": null
          },
          {
            "old_name": null,
            "city_class": null,
            "income_class": null,
            "urban_rural": null,
            "population": null,
            "parent_code": null,
            "child_counts": null
          },
          {
            "old_name": null,
            "city_class": null,
            "income_class": null,
            "urban_rural": null,
            "population": null,
            "parent_code": null,
            "child_counts": null
          },
          {
            "old_name": null,
            "city_class": null,
            "income_class": null,
            "urban_rural": null,
            "population": null,
            "parent_code": null,
            "child_counts": null
          },
          {
            "old_name": null,
            "city_class": null,
            "income_class": null,
            "urban_rural": null,
            "population": null,
            "parent_code": null,
            "child_counts": null
          },
          {
            "old_name": null,
            "city_class": null,
            "income_class": null,
            "urban_rural": null,
            "population": null,
            "parent_code": null,
            "child_counts": null
          },
          {
            "old_name": null,
            "city_class": null,
            "income_class": null,
            "urban_rural": null,
            "population": null,
            "parent_code": null,
            "child_counts": null
          },
          {
            "old_name": null,
            "city_class": null,
            "income_class": null,
            "urban_rural": null,
            "population": null,
            "parent_code": null,
            "child_counts": null
          },
          {
            "old_name": null,
            "city_class": null,
            "income_class": null,
            "urban_rural": null,
            "population": null,
            "parent_code": null,
            "child_counts": null
          },
          {
            "old_name": null,
            "city_class": null,
            "income_class": null,
            "urban_rural": null,
            "population": null,
            "parent_code": null,
            "child_counts": null
          },
          {
            "old_name": null,
            "city_class": null,
            "income_class": null,
            "urban_rural": null,
            "population": null,
            "parent_code": null,
            "child_counts": null
          },
          {
            "old_name": null,
            "city_class": null,
            "income_class": null,
            "urban_rural": null,
            "population": null,
            "parent_code": null,
            "child_counts": null
          },
          {
            "old_name": null,
            "city_class": null,
            "income_class": null,
            "urban_rural": null,
            "population": null,
            "parent_code": null,
            "child_counts": null
          },
          {
            "old_name": null,
            "city_class": null,
            "income_class": null,
            "urban_rural": null,
            "population": null,
            "parent_code": null,
            "child_counts": null
          },
          {
            "old_name": null,
            "city_class": null,
            "income_class": null,
            "urban_rural": null,
            "population": null,
            "parent_code": null,
            "child_counts": null
          },
          {
            "old_name": null,
            "city_class": null,
            "income_class": null,
            "urban_rural": null,
            "population": null,
            "parent_code": null,
            "child_counts": null
          },
          {
            "old_name": null,
            "city_class": null,
            "income_class": null,
            "urban_rural": null,
            "population": null,
            "parent_code": null,
            "child_counts": null
          },
          {
            "old_name": null,
            "city_class": null,
            "income_class": null,
            "urban_rural": null,
            "population": null,
            "parent_code": null,
            "child_counts": null
          },
          {
            "old_name": null,
            "city_class": null,
            "income_class": null,
            "urban_rural": null,
            "population": null,
            "parent_code": null,
            "child_counts": null
          },
          {
            "old_name": null,
            "city_class": null,
            "income_class": null,
            "urban_rural": null,
            "population": null,
            "parent_code": null,
            "child_counts": null
          },
          {
            "old_name": null,
            "city_class": null,
            "income_class": null,
            "urban_rural": null,
            "population": null,
            "parent_code": null,
            "child_counts": null
          },
          {
            "old_name": null,
            "city_class": null,
            "income_class": null,
            "urban_rural": null,
            "population": null,
            "parent_code": null,
            "child_counts": null
          },
          {
            "old_name": null,
            "city_class": null,
            "income_class": null,
            "urban_rural": null,
            "population": null,
            "parent_code": null,
            "child_counts": null
          },
          {
            "old_name": null,
            "city_class": null,
            "income_class": null,
            "urban_rural": null,
            "population": null,
            "parent_code": null,
            "child_counts": null
          },
          {
            "old_name": null,
            "city_class": null,
            "income_class": null,
            "urban_rural": null,
            "population": null,
            "parent_code": null,
            "child_counts": null
          },
          {
            "old_name": null,
            "city_class": null,
            "income_class": null,
            "urban_rural": null,
            "population": null,
            "parent_code": null,
            "child_counts": null
          },
          {
            "old_name": null,
            "city_class": null,
            "income_class": null,
            "urban_rural": null,
            "population": null,
            "parent_code": null,
            "child_counts": null
          },
          {
            "old_name": null,
            "city_class": null,
            "income_class": null,
            "urban_rural": null,
            "population": null,
            "parent_code": null,
            "child_counts": null
          },
          {
            "old_name": null,
            "city_class": null,
            "income_class": null,
            "urban_rural": null,
            "population": null,
            "parent_code": null,
            "child_counts": null
          },
          {
            "old_name": null,
            "city_class": null,
            "income_class": null,
            "urban_rural": null,
            "population": null,
            "parent_code": null,
            "child_counts": null
          },
          {
            "old_name": null,
            "city_class": null,
            "income_class": null,
            "urban_rural": null,
            "population": null,
            "parent_code": null,
            "child_counts": null
          },
          {
            "old_name": null,
            "city_class": null,
            "income_class": null,
            "urban_rural": null,
            "population": null,
            "parent_code": null,
            "child_counts": null
          },
          {
            "old_name": null,
            "city_class": null,
            "income_class": null,
            "urban_rural": null,
            "population": null,
            "parent_code": null,
            "child_counts": null
          },
          {
            "old_name": null,
            "city_class": null,
            "income_class": null,
            "urban_rural": null,
            "population": null,
            "parent_code": null,
            "child_counts": null
          },
          {
            "old_name": null,
            "city_class": null,
            "income_class": null,
            "urban_rural": null,
            "population": null,
            "parent_code": null,
            "child_counts": null
          },
          {
            "old_name": null,
            "city_class": null,
            "income_class": null,
            "urban_rural": null,
            "population": null,
            "parent_code": null,
            "child_counts": null
          },
          {
            "old_name": null,
            "city_class": null,
            "income_class": null,
            "urban_rural": null,
            "population": null,
            "parent_code": null,
            "child_counts": null
          },
          {
            "old_name": null,
            "city_class": null,
            "income_class": null,
            "urban_rural": null,
            "population": null,
            "parent_code": null,
            "child_counts": null
          },
          {
            "old_name": null,
            "city_class": null,
            "income_class": null,
            "urban_rural": null,
            "population": null,
            "parent_code": null,
            "child_counts": null
          },
          {
            "old_name": null,
            "city_class": null,
            "income_class": null,
            "urban_rural": null,
            "population": null,
            "parent_code": null,
            "child_counts": null
          },
          {
            "old_name": null,
            "city_class": null,
            "income_class": null,
            "urban_rural": null,
            "population": null,
            "parent_code": null,
            "child_counts": null
          },
          {
            "old_name": null,
            "city_class": null,
            "income_class": null,
            "urban_rural": null,
            "population": null,
            "parent_code": null,
            "child_counts": null
          },
          {
            "old_name": null,
            "city_class": null,
            "income_class": null,
            "urban_rural": null,
            "population": null,
            "parent_code": null,
            "child_counts": null
          },
          {
            "old_name": null,
            "city_class": null,
            "income_class": null,
            "urban_rural": null,
            "population": null,
            "parent_code": null,
            "child_counts": null
          },
          {
            "old_name": null,
            "city_class": null,
            "income_class": null,
            "urban_rural": null,
            "population": null,
            "parent_code": null,
            "child_counts": null
          },
          {
            "old_name": null,
            "city_class": null,
            "income_class": null,
            "urban_rural": null,
            "population": null,
            "parent_code": null,
            "child_counts": null
          },
          {
            "old_name": null,
            "city_class": null,
            "income_class": null,
            "urban_rural": null,
            "population": null,
            "parent_code": null,
            "child_counts": null
          },
          {
            "old_name": null,
            "city_class": null,
            "income_class": null,
            "urban_rural": null,
            "population": null,
            "parent_code": null,
            "child_counts": null
          }
        ],
        "pagination": {
          "total_count": 168,
          "offset": 0,
          "limit": 50,
          "has_more": true
        }
      }
    },
    {
      "case_number": 9,
      "tool": "list_by_type",
      "description": "All 18 Philippine regions with population data",
      "args": {
        "level": "Reg"
      },
      "response": {
        "_meta": {
          "dataset_version": "PSGC Q4 2025",
          "dataset_date": "2025-12-31",
          "last_synced": "2026-03-02",
          "source": "Philippine Statistics Authority (PSA)",
          "source_url": "https://psa.gov.ph/classification/psgc/"
        },
        "data": [
          {
            "old_name": null,
            "city_class": null,
            "income_class": null,
            "urban_rural": null,
            "population": null,
            "parent_code": null,
            "child_counts": null
          },
          {
            "old_name": null,
            "city_class": null,
            "income_class": null,
            "urban_rural": null,
            "population": null,
            "parent_code": null,
            "child_counts": null
          },
          {
            "old_name": null,
            "city_class": null,
            "income_class": null,
            "urban_rural": null,
            "population": null,
            "parent_code": null,
            "child_counts": null
          },
          {
            "old_name": null,
            "city_class": null,
            "income_class": null,
            "urban_rural": null,
            "population": null,
            "parent_code": null,
            "child_counts": null
          },
          {
            "old_name": null,
            "city_class": null,
            "income_class": null,
            "urban_rural": null,
            "population": null,
            "parent_code": null,
            "child_counts": null
          },
          {
            "old_name": null,
            "city_class": null,
            "income_class": null,
            "urban_rural": null,
            "population": null,
            "parent_code": null,
            "child_counts": null
          },
          {
            "old_name": null,
            "city_class": null,
            "income_class": null,
            "urban_rural": null,
            "population": null,
            "parent_code": null,
            "child_counts": null
          },
          {
            "old_name": null,
            "city_class": null,
            "income_class": null,
            "urban_rural": null,
            "population": null,
            "parent_code": null,
            "child_counts": null
          },
          {
            "old_name": null,
            "city_class": null,
            "income_class": null,
            "urban_rural": null,
            "population": null,
            "parent_code": null,
            "child_counts": null
          },
          {
            "old_name": null,
            "city_class": null,
            "income_class": null,
            "urban_rural": null,
            "population": null,
            "parent_code": null,
            "child_counts": null
          },
          {
            "old_name": null,
            "city_class": null,
            "income_class": null,
            "urban_rural": null,
            "population": null,
            "parent_code": null,
            "child_counts": null
          },
          {
            "old_name": null,
            "city_class": null,
            "income_class": null,
            "urban_rural": null,
            "population": null,
            "parent_code": null,
            "child_counts": null
          },
          {
            "old_name": null,
            "city_class": null,
            "income_class": null,
            "urban_rural": null,
            "population": null,
            "parent_code": null,
            "child_counts": null
          },
          {
            "old_name": null,
            "city_class": null,
            "income_class": null,
            "urban_rural": null,
            "population": null,
            "parent_code": null,
            "child_counts": null
          },
          {
            "old_name": null,
            "city_class": null,
            "income_class": null,
            "urban_rural": null,
            "population": null,
            "parent_code": null,
            "child_counts": null
          },
          {
            "old_name": null,
            "city_class": null,
            "income_class": null,
            "urban_rural": null,
            "population": null,
            "parent_code": null,
            "child_counts": null
          },
          {
            "old_name": null,
            "city_class": null,
            "income_class": null,
            "urban_rural": null,
            "population": null,
            "parent_code": null,
            "child_counts": null
          },
          {
            "old_name": null,
            "city_class": null,
            "income_class": null,
            "urban_rural": null,
            "population": null,
            "parent_code": null,
            "child_counts": null
          }
        ],
        "pagination": {
          "total_count": 18,
          "offset": 0,
          "limit": 50,
          "has_more": false
        }
      }
    },
    {
      "case_number": 10,
      "tool": "search",
      "description": "Strict exact-match search for Marilao",
      "args": {
        "query": "Marilao",
        "strict": true
      },
      "response": {
        "_meta": {
          "dataset_version": "PSGC Q4 2025",
          "dataset_date": "2025-12-31",
          "last_synced": "2026-03-02",
          "source": "Philippine Statistics Authority (PSA)",
          "source_url": "https://psa.gov.ph/classification/psgc/"
        },
        "data": [
          {
            "psgc_code": "0301411000",
            "name": "Marilao",
            "level": "Mun"
          }
        ]
      }
    }
  ]
}